Primetime/final.vcd
$date
	Sun Jun  4 19:40:41 2017
$end
$version
	QuestaSim Version 10.1d
$end
$timescale
	1ns
$end
$scope module testbench $end
$var wire 1 ! clock $end
$var wire 1 " reset $end
$var wire 1 # valid $end
$var wire 1 $ datain [7] $end
$var wire 1 % datain [6] $end
$var wire 1 & datain [5] $end
$var wire 1 ' datain [4] $end
$var wire 1 ( datain [3] $end
$var wire 1 ) datain [2] $end
$var wire 1 * datain [1] $end
$var wire 1 + datain [0] $end
$var wire 1 , dataout [18] $end
$var wire 1 - dataout [17] $end
$var wire 1 . dataout [16] $end
$var wire 1 / dataout [15] $end
$var wire 1 0 dataout [14] $end
$var wire 1 1 dataout [13] $end
$var wire 1 2 dataout [12] $end
$var wire 1 3 dataout [11] $end
$var wire 1 4 dataout [10] $end
$var wire 1 5 dataout [9] $end
$var wire 1 6 dataout [8] $end
$var wire 1 7 dataout [7] $end
$var wire 1 8 dataout [6] $end
$var wire 1 9 dataout [5] $end
$var wire 1 : dataout [4] $end
$var wire 1 ; dataout [3] $end
$var wire 1 < dataout [2] $end
$var wire 1 = dataout [1] $end
$var wire 1 > dataout [0] $end
$var wire 1 ? hold_me $end
$var wire 1 @ hold_prev $end
$upscope $end
$enddefinitions $end
#0
$dumpvars
1!
1"
0#
0?
x@
x$
x%
x&
x'
x(
x)
x*
x+
x,
x-
x.
x/
x0
x1
x2
x3
x4
x5
x6
x7
x8
x9
x:
x;
x<
x=
x>
$end
#1
0!
#2
1!
0@
#3
0!
#4
1!
#5
0!
#6
1!
#7
0!
#8
1!
0"
#9
0!
#10
1!
1@
#11
0!
#12
1!
1#
0+
0*
0)
0(
0'
0&
0%
1$
#13
0!
#14
1!
0#
#15
0!
#16
1!
1#
#17
0!
#18
1!
0#
#19
0!
#20
1!
1#
#21
0!
#22
1!
0#
#23
0!
#24
1!
1#
#25
0!
#26
1!
0#
#27
0!
#28
1!
1#
#29
0!
#30
1!
0#
#31
0!
#32
1!
1#
#33
0!
#34
1!
0#
#35
0!
#36
1!
1#
#37
0!
#38
1!
0#
#39
0!
#40
1!
1#
#41
0!
#42
1!
0#
#43
0!
#44
1!
0@
1@
